{
    "success": true,
    "response": {
        "code": 0,
        "message": {
            "modal": {
                "title": "Fill Strip",
                "component": "rgb-strip-fill-color",
                "close": "Cancel"
            },
            "scripts": [
                "script/views/rgb-strip/modal/RgbStripFillColor.js"
            ]
        }
    }
}
