{
    "success": true,
    "response": {
        "code": 0,
        "message": {
            "component": "my-application-config-root",
            "scripts": ["script/views/my-application/element/MyApplicationConfigRoot.js"]
        }
    }
}
